…
## -- Attaching packages ------------------------------------------ tidyverse 1.2.1 --

## <U+221A> tibble  1.4.2     <U+221A> purrr   0.2.4
## <U+221A> tidyr   0.8.0     <U+221A> dplyr   0.7.4
## <U+221A> readr   1.1.1     <U+221A> stringr 1.3.0
## <U+221A> tibble  1.4.2     <U+221A> forcats 0.3.0

## -- Conflicts --------------------------------------------- tidyverse_conflicts() --
## x dplyr::filter() masks stats::filter()
## x dplyr::lag()    masks stats::lag()

## # A tibble: 12,082 x 10
##    carat cut       color clarity depth table price     x     y     z
##    <dbl> <ord>     <ord> <ord>   <dbl> <dbl> <int> <dbl> <dbl> <dbl>
##  1 0.240 Very Good J     VVS2     62.8   57.   336  3.94  3.96  2.48
##  2 0.240 Very Good I     VVS1     62.3   57.   336  3.95  3.98  2.47
##  3 0.260 Very Good H     SI1      61.9   55.   337  4.07  4.11  2.53
##  4 0.230 Very Good H     VS1      59.4   61.   338  4.00  4.05  2.39
##  5 0.300 Very Good J     SI1      62.7   59.   351  4.21  4.27  2.66
##  6 0.230 Very Good E     VS2      63.8   55.   352  3.85  3.92  2.48
##  7 0.230 Very Good H     VS1      61.0   57.   353  3.94  3.96  2.41
##  8 0.310 Very Good J     SI1      59.4   62.   353  4.39  4.43  2.62
##  9 0.310 Very Good J     SI1      58.1   62.   353  4.44  4.47  2.59
## 10 0.230 Very Good G     VVS2     60.4   58.   354  3.97  4.01  2.41
## # ... with 12,072 more rows
